{
    "applications": {
        "_default": {
            "link": "stockGamble"
        }, 
        "stockGamble": {
            "applicationId": "cAGfaz8lwlu6e4X8OiasGBbz4IavZFMgrot2VgYs", 
            "masterKey": "MtH61GnIFuym4BbyBw92mhKZHb8IoBVdSu3nC9Z3"
        }
    }, 
    "global": {
        "parseVersion": "1.2.18"
    }
}